Geospatial risk modeling - the case of crime
…
vars_net

## Simple feature collection with 2458 features and 7 fields
## geometry type:  POLYGON
## dimension:      XY
## bbox:           xmin: 341164.1 ymin: 552875.4 xmax: 367664.1 ymax: 594875.4
## epsg (SRID):    102271
## proj4string:    +proj=tmerc +lat_0=36.66666666666666 +lon_0=-88.33333333333333 +k=0.9999749999999999 +x_0=300000 +y_0=0 +ellps=GRS80 +towgs84=0,0,0,0,0,0,0 +units=m +no_defs
## # A tibble: 2,458 x 8
## # Groups:   uniqueID [2,458]
##    uniqueID Abandoned_Build~ Abandoned_Cars Graffiti Liquor_Retail
##    <chr>               <dbl>          <dbl>    <dbl>         <dbl>
##  1 1                       0              0        0             0
##  2 10                      0              0        0             0
##  3 100                     0              4        1             0
##  4 1000                    1              4        0             0
##  5 1001                    0              3        1             0
##  6 1002                    0              6        1             0
##  7 1003                    0              5        2             0
##  8 1004                    0              1        0             0
##  9 1005                    0              0        0             0
## 10 1006                    0              0        0             0
## # ... with 2,448 more rows, and 3 more variables: Sanitation <dbl>,
## #   Street_Lights_Out <dbl>, geometry <POLYGON [m]>
…
